<svg xmlns="http://www.w3.org/2000/svg" width="1286.25" height="431.25" viewBox="0 0 1715 575">
  <defs>
    <style>
      .cls-1 {
        fill: #eb0028;
      }

      .cls-1, .cls-2 {
        fill-rule: evenodd;
      }

      .cls-2 {
        fill: #fff;
      }
    </style>
  </defs>
  <path id="T" class="cls-1" d="M220.537,197.088v33.5h60.9V386.308h42.617V230.593h60.627v-33.5H220.537Z"/>
  <path id="E" class="cls-1" d="M556.628,194.157H413.061v195.76H561.409V354.723H453.036V304.388h95.092v-34H453.036V228.82H556.628V194.157Z"/>
  <path id="W" class="cls-2" d="M1133.83,196.286l47.41,191.671h25.81l42.11-158.921,41.85,158.921h25.81l47.66-191.671h-26.91l-34.21,155.92-40.99-155.92H1235.7l-41,155.92-34.2-155.92h-26.67Z"/>
  <path id="C" class="cls-2" d="M1461.98,194.067q-40.365,0-63.34,29.488-21.24,27.14-21.24,69.544,0,55.846,28.28,82.592,21.48,20.226,53.09,20.224,36.675,0,58.28-24.66,18.03-20.482,21.24-50.756h-23.95q-3.705,18.921-11.24,30.532-14.2,22.052-41.36,22.051-29.52,0-44.39-20.942t-14.88-54.6q0-41.1,16.48-61t43.28-19.9q21.975,0,34.14,10.83t16.24,29.357h23.95q-2.1-24.4-21.11-43.579t-53.47-19.18h0Z"/>
  <path id="N" class="cls-2" d="M966.551,387.957h23.461V232.819l92.978,155.138h27.54V196.286h-23.34V351.554L995.569,196.286H966.551V387.957Z"/>
  <path id="D" class="cls-1" d="M677.85,224.156q27.933,0,37.311,16t9.377,45.886q0,21.648-6.252,37.319-11.439,28.556-40.436,28.554H640.072V224.156H677.85Zm6.914-34h-84.4v195.76h84.4q44.394,0,65.66-36.522,15.681-27.093,15.684-66.139a151.592,151.592,0,0,0-3.723-32.406,87.089,87.089,0,0,0-13.956-31.608,64.692,64.692,0,0,0-33.362-24.836q-12.1-3.984-30.3-4.249h0Z"/>
  <path id="x" class="cls-1" d="M838.226,270.325l22.909,41.109h30.59l-39.179-62.408,36.889-58.155H860.317l-22.093,39.263-21.5-39.263h-30.1l36.889,59.137-38.77,61.426h29.282Z"/>
</svg>
